[
            {
                "id": 0,
                "name": "Blusas",
                "image": "https://i.imgur.com/cn6HkgT.jpg"
            },
            {
                "id": 2,
                "name": "Pantalones",
                "image": "https://i.imgur.com/kfRY1gv.jpg"
            },
            {
                "id": 3,
                "name": "Vestidos",
                "image": "https://i.imgur.com/LklZEYV.jpg"
            },
            {
              "id": 4,
              "name": "Faldas",
              "image": "https://i.imgur.com/UWCuxpA.jpg"
            }
]