	[
            {
                "id": 1,
                "image":
                    "http://www.zonadebelleza.com/wp-content/uploads/2015/05/Blusas-de-moda-5.jpg"
            },
            {
                "id": 2,
               "image":
                    "https://i.pinimg.com/736x/36/31/34/3631343d097086e2b175efa9d8db759d--jersey-blouse-chiffon-blouse.jpg"
            },
            {
                "id": 3,
                "image":
                    "http://www.ohmotherminediy.com/wp-content/uploads/2017/02/diy-coser-blusa-mujer-volante-03.jpg"
            },
            {
                "id": 4,
                "image":
                    "http://4.bp.blogspot.com/-PRwQBPpdh-g/ViT5iZtLZkI/AAAAAAAAbNM/z22xvld9lcY/s1600/tutorial%2Bpatrones%2Bblusa%2Bmujer%2Bdiy%2Bcostura%2B03.JPG"
            },
            {
                "id": 5,
                "image":
                    "http://www.bestshopping.es/WebRoot/StoreES/Shops/63731684/5123/C8E8/92EC/3F10/C1B1/C0A8/29BA/8AD6/P1140416.JPG"
            },
            {
                "id": 6,
                "image":
                    "https://ae01.alicdn.com/kf/HTB1yVxYIFXXXXcDXpXXq6xXFXXXG/Blusas-verano-2015-de-manga-larga-de-gasa-blusa-Camisas-moda-V-cuello-camisa-mujer-blusa.jpg_640x640.jpg"
            },
            {
                "id": 7,
                "image":
                    "https://http2.mlstatic.com/D_Q_NP_708014-MLA26414206335_112017-Q.jpg"
            },
            {
                "id": 8,
                "image":
                    "http://albertoesilvalda.com/components/com_jshopping/files/img_products/full_de10323c49fe07bfc9313e050827b472.jpg"
            },
            {
                "id": 9,
                "image":
                    "http://www.ohmotherminediy.com/wp-content/uploads/2017/02/diy-coser-blusa-mujer-volante-03.jpg"
            }
]